D:\Developer\SDA\GameDevSchool\src\main\java\mrt\school\core\school\group\SchoolClassDaoImpl.java
D:\Developer\SDA\GameDevSchool\src\main\java\mrt\school\core\school\grade\TypeOfGradeDao.java
D:\Developer\SDA\GameDevSchool\src\main\java\mrt\school\core\subject\actual\ActualSubjectDao.java
D:\Developer\SDA\GameDevSchool\src\main\java\mrt\school\core\subject\list\SubjectListDao.java
D:\Developer\SDA\GameDevSchool\src\main\java\mrt\school\web\school\group\SchoolClassController.java
D:\Developer\SDA\GameDevSchool\src\main\java\mrt\school\core\basedao\BaseDao.java
D:\Developer\SDA\GameDevSchool\src\main\java\mrt\school\core\personal\data\PersonalDataDao.java
D:\Developer\SDA\GameDevSchool\src\main\java\mrt\school\core\account\AccountDao.java
D:\Developer\SDA\GameDevSchool\src\main\java\mrt\school\core\role\RoleDaoImpl.java
D:\Developer\SDA\GameDevSchool\src\main\java\mrt\school\core\school\grade\TypeOfGradeDaoImpl.java
D:\Developer\SDA\GameDevSchool\src\main\java\mrt\school\web\account\AccountController.java
D:\Developer\SDA\GameDevSchool\src\main\java\mrt\school\core\password\IPassword.java
D:\Developer\SDA\GameDevSchool\src\main\java\mrt\school\core\school\grade\SchoolGrade.java
D:\Developer\SDA\GameDevSchool\src\main\java\mrt\school\pojo\SubjectGradeView.java
D:\Developer\SDA\GameDevSchool\src\main\java\mrt\school\web\school\grade\SchoolGradeController.java
D:\Developer\SDA\GameDevSchool\src\main\java\mrt\school\core\subject\actual\ActualSubject.java
D:\Developer\SDA\GameDevSchool\src\main\java\mrt\school\web\initcontroller\AuthenticationController.java
D:\Developer\SDA\GameDevSchool\src\main\java\mrt\school\core\account\AccountLoginSuccessHandler.java
D:\Developer\SDA\GameDevSchool\src\main\java\mrt\school\web\config\AppWebInitializer.java
D:\Developer\SDA\GameDevSchool\src\main\java\mrt\school\core\role\RoleDao.java
D:\Developer\SDA\GameDevSchool\src\main\java\mrt\school\core\subject\list\SubjectList.java
D:\Developer\SDA\GameDevSchool\src\main\java\mrt\school\core\account\AccountDetailService.java
D:\Developer\SDA\GameDevSchool\src\main\java\mrt\school\core\subject\actual\ActualSubjectDaoImpl.java
D:\Developer\SDA\GameDevSchool\src\main\java\mrt\school\core\school\grade\SchoolGradeDao.java
D:\Developer\SDA\GameDevSchool\src\main\java\mrt\school\core\school\group\SchoolClass.java
D:\Developer\SDA\GameDevSchool\src\main\java\mrt\school\core\school\grade\SchoolGradeDaoImpl.java
D:\Developer\SDA\GameDevSchool\src\main\java\mrt\school\core\subject\list\SubjectListDaoImpl.java
D:\Developer\SDA\GameDevSchool\src\main\java\mrt\school\core\config\AppConfig.java
D:\Developer\SDA\GameDevSchool\src\main\java\mrt\school\core\basedao\AbstractBaseDao.java
D:\Developer\SDA\GameDevSchool\src\main\java\mrt\school\web\config\AppWebConfig.java
D:\Developer\SDA\GameDevSchool\src\main\java\mrt\school\pojo\PersonInClass.java
D:\Developer\SDA\GameDevSchool\src\main\java\mrt\school\web\subject\SubjectController.java
D:\Developer\SDA\GameDevSchool\src\main\java\mrt\school\core\personal\data\PersonalData.java
D:\Developer\SDA\GameDevSchool\src\main\java\mrt\school\core\personal\status\PersonalStatusDao.java
D:\Developer\SDA\GameDevSchool\src\main\java\mrt\school\core\account\AccountProvider.java
D:\Developer\SDA\GameDevSchool\src\main\java\mrt\school\core\personal\status\PersonalStatusDaoImpl.java
D:\Developer\SDA\GameDevSchool\src\main\java\mrt\school\core\personal\status\PersonalStatus.java
D:\Developer\SDA\GameDevSchool\src\main\java\mrt\school\core\account\AccountDaoImpl.java
D:\Developer\SDA\GameDevSchool\src\main\java\mrt\school\core\school\grade\TypeOfGrade.java
D:\Developer\SDA\GameDevSchool\src\main\java\mrt\school\core\school\group\SchoolClassDao.java
D:\Developer\SDA\GameDevSchool\src\main\java\mrt\school\core\account\Account.java
D:\Developer\SDA\GameDevSchool\src\main\java\mrt\school\pojo\StudentGrade.java
D:\Developer\SDA\GameDevSchool\src\main\java\mrt\school\core\config\SecurityConfig.java
D:\Developer\SDA\GameDevSchool\src\main\java\mrt\school\core\role\Role.java
D:\Developer\SDA\GameDevSchool\src\main\java\mrt\school\web\personaldata\PersonalDataController.java
D:\Developer\SDA\GameDevSchool\src\main\java\mrt\school\web\config\SecurityInitializer.java
D:\Developer\SDA\GameDevSchool\src\main\java\mrt\school\core\account\SessionAccountProvider.java
D:\Developer\SDA\GameDevSchool\src\main\java\mrt\school\pojo\SchoolClassViewManager.java
D:\Developer\SDA\GameDevSchool\src\main\java\mrt\school\core\personal\data\PersonalDataDaoImpl.java
D:\Developer\SDA\GameDevSchool\src\main\java\mrt\school\core\password\Password.java
