^C:\USERS\MRT\DROPBOX\PROGRAMOWANIE\PRACA INZ\WYCIAGANIE_RAMEK\WYCIAGANIE_RAMEK\MAIN.CPP
C:\USERS\MRT\DROPBOX\PROGRAMOWANIE\PRACA INZ\WYCIAGANIE_RAMEK\WYCIAGANIE_RAMEK\DEBUG\VC110.PDB
C:\USERS\MRT\DROPBOX\PROGRAMOWANIE\PRACA INZ\WYCIAGANIE_RAMEK\WYCIAGANIE_RAMEK\DEBUG\MAIN.OBJ
