^C:\PRACA INZ\PROGRAM\METODA_WYBORU_PREDYKTORA\METODA_WYBORU_PREDYKTORA\X64\DEBUG\FUNCTION.OBJ|C:\PRACA INZ\PROGRAM\METODA_WYBORU_PREDYKTORA\METODA_WYBORU_PREDYKTORA\X64\DEBUG\HISTOGRAM.OBJ|C:\PRACA INZ\PROGRAM\METODA_WYBORU_PREDYKTORA\METODA_WYBORU_PREDYKTORA\X64\DEBUG\KWANTOWANIE.OBJ|C:\PRACA INZ\PROGRAM\METODA_WYBORU_PREDYKTORA\METODA_WYBORU_PREDYKTORA\X64\DEBUG\MAIN.OBJ|C:\PRACA INZ\PROGRAM\METODA_WYBORU_PREDYKTORA\METODA_WYBORU_PREDYKTORA\X64\DEBUG\METODA_WYBORU_3_KWANT.OBJ|C:\PRACA INZ\PROGRAM\METODA_WYBORU_PREDYKTORA\METODA_WYBORU_PREDYKTORA\X64\DEBUG\METODA_WYBORU_3_KWANT2.OBJ|C:\PRACA INZ\PROGRAM\METODA_WYBORU_PREDYKTORA\METODA_WYBORU_PREDYKTORA\X64\DEBUG\METODA_WYBORU_5_KWANT.OBJ|C:\PRACA INZ\PROGRAM\METODA_WYBORU_PREDYKTORA\METODA_WYBORU_PREDYKTORA\X64\DEBUG\METODA_WYBORU_5_KWANT2.OBJ|C:\PRACA INZ\PROGRAM\METODA_WYBORU_PREDYKTORA\METODA_WYBORU_PREDYKTORA\X64\DEBUG\METODA_WYBORU_7_KWANT.OBJ|C:\PRACA INZ\PROGRAM\METODA_WYBORU_PREDYKTORA\METODA_WYBORU_PREDYKTORA\X64\DEBUG\METODA_WYBORU_7_KWANT2.OBJ|C:\PRACA INZ\PROGRAM\METODA_WYBORU_PREDYKTORA\METODA_WYBORU_PREDYKTORA\X64\DEBUG\METODA_WYBORU_9_KWANT.OBJ|C:\PRACA INZ\PROGRAM\METODA_WYBORU_PREDYKTORA\METODA_WYBORU_PREDYKTORA\X64\DEBUG\METODA_WYBORU_9_KWANT2.OBJ
C:\PRACA INZ\PROGRAM\METODA_WYBORU_PREDYKTORA\X64\DEBUG\METODA_WYBORU_PREDYKTORA.ILK
C:\PRACA INZ\PROGRAM\METODA_WYBORU_PREDYKTORA\X64\DEBUG\METODA_WYBORU_PREDYKTORA.EXE
C:\PRACA INZ\PROGRAM\METODA_WYBORU_PREDYKTORA\X64\DEBUG\METODA_WYBORU_PREDYKTORA.PDB
^C:\PRACA INZ\ZAWARTOŚĆ CD\PROGRAM TESTOWY\METODA_WYBORU_PREDYKTORA\METODA_WYBORU_PREDYKTORA\X64\DEBUG\FUNCTION.OBJ|C:\PRACA INZ\ZAWARTOŚĆ CD\PROGRAM TESTOWY\METODA_WYBORU_PREDYKTORA\METODA_WYBORU_PREDYKTORA\X64\DEBUG\HISTOGRAM.OBJ|C:\PRACA INZ\ZAWARTOŚĆ CD\PROGRAM TESTOWY\METODA_WYBORU_PREDYKTORA\METODA_WYBORU_PREDYKTORA\X64\DEBUG\KWANTOWANIE.OBJ|C:\PRACA INZ\ZAWARTOŚĆ CD\PROGRAM TESTOWY\METODA_WYBORU_PREDYKTORA\METODA_WYBORU_PREDYKTORA\X64\DEBUG\MAIN.OBJ|C:\PRACA INZ\ZAWARTOŚĆ CD\PROGRAM TESTOWY\METODA_WYBORU_PREDYKTORA\METODA_WYBORU_PREDYKTORA\X64\DEBUG\METODA_WYBORU_3_KWANT.OBJ|C:\PRACA INZ\ZAWARTOŚĆ CD\PROGRAM TESTOWY\METODA_WYBORU_PREDYKTORA\METODA_WYBORU_PREDYKTORA\X64\DEBUG\METODA_WYBORU_3_KWANT2.OBJ|C:\PRACA INZ\ZAWARTOŚĆ CD\PROGRAM TESTOWY\METODA_WYBORU_PREDYKTORA\METODA_WYBORU_PREDYKTORA\X64\DEBUG\METODA_WYBORU_5_KWANT.OBJ|C:\PRACA INZ\ZAWARTOŚĆ CD\PROGRAM TESTOWY\METODA_WYBORU_PREDYKTORA\METODA_WYBORU_PREDYKTORA\X64\DEBUG\METODA_WYBORU_5_KWANT2.OBJ|C:\PRACA INZ\ZAWARTOŚĆ CD\PROGRAM TESTOWY\METODA_WYBORU_PREDYKTORA\METODA_WYBORU_PREDYKTORA\X64\DEBUG\METODA_WYBORU_7_KWANT.OBJ|C:\PRACA INZ\ZAWARTOŚĆ CD\PROGRAM TESTOWY\METODA_WYBORU_PREDYKTORA\METODA_WYBORU_PREDYKTORA\X64\DEBUG\METODA_WYBORU_7_KWANT2.OBJ|C:\PRACA INZ\ZAWARTOŚĆ CD\PROGRAM TESTOWY\METODA_WYBORU_PREDYKTORA\METODA_WYBORU_PREDYKTORA\X64\DEBUG\METODA_WYBORU_9_KWANT.OBJ|C:\PRACA INZ\ZAWARTOŚĆ CD\PROGRAM TESTOWY\METODA_WYBORU_PREDYKTORA\METODA_WYBORU_PREDYKTORA\X64\DEBUG\METODA_WYBORU_9_KWANT2.OBJ
C:\PRACA INZ\ZAWARTOść CD\PROGRAM TESTOWY\METODA_WYBORU_PREDYKTORA\X64\DEBUG\METODA_WYBORU_PREDYKTORA.ILK
C:\PRACA INZ\ZAWARTOść CD\PROGRAM TESTOWY\METODA_WYBORU_PREDYKTORA\X64\DEBUG\METODA_WYBORU_PREDYKTORA.EXE
C:\PRACA INZ\ZAWARTOŚĆ CD\PROGRAM TESTOWY\METODA_WYBORU_PREDYKTORA\X64\DEBUG\METODA_WYBORU_PREDYKTORA.PDB
