^C:\USERS\MRT\DROPBOX\PROGRAMOWANIE\PRACA INZ\METODA_WYBORU_PREDYKTORA\METODA_WYBORU_PREDYKTORA\FUNCTION.CPP|C:\USERS\MRT\DROPBOX\PROGRAMOWANIE\PRACA INZ\METODA_WYBORU_PREDYKTORA\METODA_WYBORU_PREDYKTORA\HISTOGRAM.CPP|C:\USERS\MRT\DROPBOX\PROGRAMOWANIE\PRACA INZ\METODA_WYBORU_PREDYKTORA\METODA_WYBORU_PREDYKTORA\MAIN.CPP
C:\USERS\MRT\DROPBOX\PROGRAMOWANIE\PRACA INZ\METODA_WYBORU_PREDYKTORA\METODA_WYBORU_PREDYKTORA\X64\RELEASE\MAIN.OBJ
C:\USERS\MRT\DROPBOX\PROGRAMOWANIE\PRACA INZ\METODA_WYBORU_PREDYKTORA\METODA_WYBORU_PREDYKTORA\X64\RELEASE\HISTOGRAM.OBJ
C:\USERS\MRT\DROPBOX\PROGRAMOWANIE\PRACA INZ\METODA_WYBORU_PREDYKTORA\METODA_WYBORU_PREDYKTORA\X64\RELEASE\FUNCTION.OBJ
^C:\USERS\MRT\DROPBOX\PROGRAMOWANIE\PRACA INZ\METODA_WYBORU_PREDYKTORA\METODA_WYBORU_PREDYKTORA\FUNCTION.CPP
C:\USERS\MRT\DROPBOX\PROGRAMOWANIE\PRACA INZ\METODA_WYBORU_PREDYKTORA\METODA_WYBORU_PREDYKTORA\X64\RELEASE\VC110.PDB
^C:\USERS\MRT\DROPBOX\PROGRAMOWANIE\PRACA INZ\METODA_WYBORU_PREDYKTORA\METODA_WYBORU_PREDYKTORA\HISTOGRAM.CPP
C:\USERS\MRT\DROPBOX\PROGRAMOWANIE\PRACA INZ\METODA_WYBORU_PREDYKTORA\METODA_WYBORU_PREDYKTORA\X64\RELEASE\VC110.PDB
^C:\USERS\MRT\DROPBOX\PROGRAMOWANIE\PRACA INZ\METODA_WYBORU_PREDYKTORA\METODA_WYBORU_PREDYKTORA\MAIN.CPP
C:\USERS\MRT\DROPBOX\PROGRAMOWANIE\PRACA INZ\METODA_WYBORU_PREDYKTORA\METODA_WYBORU_PREDYKTORA\X64\RELEASE\VC110.PDB
