test	Pred1	Pred2	Pred3	Pred4	Pred5	Pred6	Pred7	Pred8	Pred9	Pred10	max_indesx	wybor
p1	6313771	3724752	1685480	0	0	0	0	2453899	0	1383698	1	p1
p2	0	0	0	0	0	0	0	0	0	0	1	p2
p3	0	0	0	0	0	0	0	0	0	0	1	p3
p4	0	0	0	0	0	0	0	0	0	0	1	p4
p5	0	0	0	0	0	0	0	0	0	0	1	p5
p6	0	0	0	0	0	0	0	0	0	0	1	p6
p7	0	0	0	0	0	0	0	0	0	0	1	p7
p8	0	0	0	0	0	0	0	0	0	0	1	p8
p9	0	0	0	0	0	0	0	0	0	0	1	p9
p10	0	0	0	0	0	0	0	0	0	0	1	p10
p11	0	0	0	0	0	0	0	0	0	0	1	p11
