^C:\USERS\MRT\DROPBOX\PROGRAMOWANIE\KODERHUFFMAN1\KODERHUFFMAN1\MAIN.CPP
/c /ZI /nologo /W3 /WX- /Od /Oy- /D _MBCS /Gm /EHsc /RTC1 /MDd /GS /fp:precise /Zc:wchar_t /Zc:forScope /Fo"DEBUG\\" /Fd"DEBUG\VC110.PDB" /Gd /TP /analyze- C:\USERS\MRT\DROPBOX\PROGRAMOWANIE\KODERHUFFMAN1\KODERHUFFMAN1\MAIN.CPP
^C:\USERS\MRT\DROPBOX\PROGRAMOWANIE\KODERHUFFMAN1\KODERHUFFMAN1\TREE.CPP
/c /ZI /nologo /W3 /WX- /Od /Oy- /D _MBCS /Gm /EHsc /RTC1 /MDd /GS /fp:precise /Zc:wchar_t /Zc:forScope /Fo"DEBUG\\" /Fd"DEBUG\VC110.PDB" /Gd /TP /analyze- C:\USERS\MRT\DROPBOX\PROGRAMOWANIE\KODERHUFFMAN1\KODERHUFFMAN1\TREE.CPP
^C:\USERS\MRT\DROPBOX\PROGRAMOWANIE\KODERHUFFMAN1\KODERHUFFMAN1\TREE_FUNCTION.CPP
/c /ZI /nologo /W3 /WX- /Od /Oy- /D _MBCS /Gm /EHsc /RTC1 /MDd /GS /fp:precise /Zc:wchar_t /Zc:forScope /Fo"DEBUG\\" /Fd"DEBUG\VC110.PDB" /Gd /TP /analyze- C:\USERS\MRT\DROPBOX\PROGRAMOWANIE\KODERHUFFMAN1\KODERHUFFMAN1\TREE_FUNCTION.CPP
^C:\PRACA INZ\ZAWARTOŚĆ CD\PROGRAMY TESTOWE\KODERHUFFMAN\KODERHUFFMAN1\MAIN.CPP
/c /ZI /nologo /W3 /WX- /Od /Oy- /D _MBCS /Gm /EHsc /RTC1 /MDd /GS /fp:precise /Zc:wchar_t /Zc:forScope /Fo"DEBUG\\" /Fd"DEBUG\VC110.PDB" /Gd /TP /analyze- C:\PRACA INZ\ZAWARTOŚĆ CD\PROGRAMY TESTOWE\KODERHUFFMAN\KODERHUFFMAN1\MAIN.CPP
^C:\PRACA INZ\ZAWARTOŚĆ CD\PROGRAMY TESTOWE\KODERHUFFMAN\KODERHUFFMAN1\TREE.CPP
/c /ZI /nologo /W3 /WX- /Od /Oy- /D _MBCS /Gm /EHsc /RTC1 /MDd /GS /fp:precise /Zc:wchar_t /Zc:forScope /Fo"DEBUG\\" /Fd"DEBUG\VC110.PDB" /Gd /TP /analyze- C:\PRACA INZ\ZAWARTOŚĆ CD\PROGRAMY TESTOWE\KODERHUFFMAN\KODERHUFFMAN1\TREE.CPP
^C:\PRACA INZ\ZAWARTOŚĆ CD\PROGRAMY TESTOWE\KODERHUFFMAN\KODERHUFFMAN1\TREE_FUNCTION.CPP
/c /ZI /nologo /W3 /WX- /Od /Oy- /D _MBCS /Gm /EHsc /RTC1 /MDd /GS /fp:precise /Zc:wchar_t /Zc:forScope /Fo"DEBUG\\" /Fd"DEBUG\VC110.PDB" /Gd /TP /analyze- C:\PRACA INZ\ZAWARTOŚĆ CD\PROGRAMY TESTOWE\KODERHUFFMAN\KODERHUFFMAN1\TREE_FUNCTION.CPP
